NAME,          obstot1, obsbkg1, c1, obstot2, c2, n200,r500,  r200, rt,     rmax, m200,m200e  ,mt,mte, ratio, ra, dec, z, lx43, cat, tx,vdisp, vdispp, vdispm,class,rcomp
A0160,28,13, 3.107, 29, 2.951,31,  0.46, 0.67, 2.70,  1.31, 0.68, 0.38,  0.80, 0.54, 1.17,18.27410, 15.51700,0.0432,0.092 , NOR,   2.70,489, 62,45,2, 0.7
A0602,45,37, 3.186, 23, 10.77,29, 0.84, 1.23, 5.45,  2.32, 4.34, 0.44,  6.57, 0.66, 1.51,118.35100, 29.36600,0.0606,0.289 , BCS,   0.00,712, 81,60,2, 2.0 
A0671,44,20, 2.545, 36, 5.443,37, 0.76, 1.12, 4.76,  3.94, 3.23, 1.02,  4.40, 1.49, 1.36,127.16210, 30.42800,0.0503,0.205 , NOR,   0.00,854, 72,57,2,11.8
A0779,27,0 ,0.2245, 19, 0.4303,29, 0.64, 0.92, 3.89,  2.12, 1.80, 0.30,  2.40, 0.46, 1.33,139.92200, 33.76300,0.0233,0.024,  eBCS,  1.92,528, 45,36,2, 2.2
A0957,33,20, 4.605, 26, 7.947,29, 0.64, 0.88, 3.37,  0.71, 1.58, 0.98,  1.55, 0.96, 0.98,153.41790 ,-0.91440,0.0455,0.223 , REF,   0.00,763, 85,64,1, 0.3
A0954,27,168, 44.87, 28, 41.05,29, 0.37, 0.63, 2.46,  0.71, 0.59, 0.44,  0.61, 0.48, 1.03,153.43670, -0.10860,0.0928,0.375,  REF,   0.00,510,132,74,2, 0.6 
A0971,63,127, 9.957, 50, 19.57,47, 0.85, 1.24, 4.96,  3.94, 4.46, 0.89,  4.95, 1.05, 1.11,154.99920, 40.98730,0.0923,0.307,  NOR,   0.00,784,108,76,2,17.8
RXCJ1022.0+3830,30,28, 8.598, 26, 10.27,33, 0.49, 0.78, 3.79,  4.34, 1.09, 0.89,  2.21, 2.06, 2.03,155.51960, 38.51200,0.0546,0.115,  NOR,   0.00,573, 71,52,2, 2.9
A1066,76,41,4.075, 65, 6.421,58, 0.84, 1.26, 5.80,  5.96, 4.68, 0.51,  7.93, 1.06, 1.69,159.86610, 05.17950,0.0684,0.332,  NOR914,0.00,771, 63,51,2,11.1
RXJ1053.7+5450,48,70, 6.381, 40, 13.77,38, 0.78, 1.14, 5.40,  9.60, 3.46, 0.41,  6.41, 0.93, 1.85,163.44900, 54.85000,0.0727,0.298,  BCS,   0.00,605, 67,50,2,20.2
A1142,25,1, 0.596, 15, 1.606,24, 0.68, 0.98, 4.43,  4.85, 2.19, 0.65,  3.54, 1.32, 1.62,165.20370, 10.55960,0.0350,0.071,  NOR914,0.00,579, 65,49,2, 1.3 
A1173,28,110,20.96, 27, 30.4,25, 0.53, 0.74, 3.43,  2.73, 0.95, 0.37,  1.65, 0.79, 1.74,167.32820, 41.56240,0.0760,0.284,  NOR ,  0.00,598,101,67,2, 6.6
A1190,65,88,9.149, 63, 9.896,55, 0.67, 1.01, 5.26,  7.17, 2.37, 1.13,  5.91, 2.83, 2.49,167.91040, 40.84240,0.0755,0.488,  NOR ,  0.00,636, 64,49,2, 3.5
A1205,46,67,9.111, 42, 11.84,43,0.60, 0.96, 5.95,  9.29, 2.06, 0.71,  8.55, 3.59, 4.15 ,168.33620, 02.53230,0.0756,0.519,  NOR914,0.00,591, 73,53,2,14.2
RXCJ1115.5+5426,52,50, 6.798, 45, 10.4,43,0.69, 1.05, 5.42,  9.49, 2.67, 0.33,  6.48, 1.17, 2.43 ,168.88650, 54.43500,0.0701,0.193,   NOR,   0.00,610, 68,51,2,19.1
SHK352,44,24,3.063, 32, 6.125,35,0.73, 1.05, 4.22,  1.31, 2.73, 0.24,  3.07, 0.45, 1.12,170.42800, 02.81840,0.0484,0.149,  NOR,   0.00,602, 60,46,2, 8.0
A1314,37,5,1.151, 33, 1.832,33, 0.60, 0.90, 3.83,  9.49, 1.72, 0.44,  2.28, 0.69, 1.33,173.74800, 49.09000,0.0334,0.068,  BCS,   5.00,592, 46,37,2,14.8
A1377,47,48,6.697, 50, 5.913,47, 0.55, 0.83, 3.67,  2.02, 1.31, 0.92,  2.00, 1.70, 1.53,176.83630, 55.74330,0.0515,0.097,  NOR914,0.00,616, 64,49,2 ,6.9
A1424,49,45, 8.575, 39, 13.47,43, 0.71, 1.06, 5.00,  2.42, 2.76, 0.83,  5.10, 2.21, 1.85,179.36960, 05.06290,0.0754,0.258,  NOR914,0.00,619, 66,50,2, 4.6
A1436,46,51, 15.6, 64, 8.021, 58,0.39, 0.72, 3.55,  1.82, 0.86, 0.22,  1.83, 0.67, 2.12,180.09180, 56.23030,0.0648,0.268,  NOR914,0.00,501, 61,45,2,10.5 
MKW4,26,1, 0.1811, 19, 0.5456,19,0.62, 0.90, 4.17,  6.36, 1.67, 0.17,  2.95, 0.53, 1.77,181.10500, 01.90060,0.0204,0.091,  REF ,  1.83,577, 49,39,2, 4.5 
RXCJ1210.3+0523,30,67, 25.68, 36, 19.2,38, 0.44, 0.68, 3.09,  2.22, 0.73, 0.47,  1.20, 0.78, 1.63,182.57830, 05.38500,0.0764,0.394,  NOR,   0.00,438, 78,51,2 ,3.4
Zw1215.1+0400,82,62, 10.46, 90, 7.965,74, 0.67, 1.02, 4.42,  9.29, 2.50, 2.18,  3.52, 3.40, 1.41,184.41920, 03.66240,0.0772,1.419,  NOR,   0.00,735, 64,51,2, 3.4
A1552,70,113, 15.72, 78, 11.33, 66,0.61, 0.92, 4.84,  5.05, 1.79, 1.06,  4.62, 2.57, 2.58 ,187.49660, 11.78910,0.0861,0.311,  NOR,   0.00,711, 83,61,2, 8.7
A1663,68,86, 7.363, 55, 12.2, 51,0.74, 1.20, 6.21,  8.99, 3.99, 1.42,  9.74, 3.18, 2.44,195.71130, -2.50610,0.0837,0.384,  REF,   0.00,720, 70,54,1, 5.2
MS1306,22,104, 34.78, 19, 44.83,21, 0.38, 0.63, 3.41,  3.54, 0.58, 0.12,  1.61, 0.38, 2.76,197.32080, -1.61250,0.0832,0.448,  REF,   0.00,409, 93,56,1, 9.2
A1728,46,135, 11.93, 22, 26.7, 33,0.68, 1.08, 5.38,  5.66, 2.92, 1.65,  6.36, 3.44, 2.18 ,200.87600, 11.29600,0.0899,0.343,  eBCS,  0.00,790,109,77,1, 2.1
RXJ1326.2+0013,16,118, 34.21, 12, 57.11,17, 0.43, 0.63, 3.48,  2.42, 0.57, 0.37,  1.71, 1.10, 2.97,201.57420, 00.22560,0.0827,0.492,  REF,   0.00,481,119,68,1,16.5 
MKW11,13,8, 1.927, 9, 4.28,10, 0.34, 0.53, 2.50,  1.62, 0.34, 0.13,  0.64, 0.29, 1.88,202.38360, 11.78920,0.0228,0.033,  NOR914,0.00,361 ,50,35,2, 1.1
A1750,58,86, 16.57, 71, 12.3,59, 0.50, 0.88, 5.08,  8.99, 1.59, 1.42,  5.33, 4.36, 3.35, 202.70790, -1.87280,0.0856,1.136,  REF,   4.41,643, 79,58,2, 7.7
A1767,90,35, 3.314, 59, 6.62, 54,0.93, 1.37, 6.53,  9.29, 6.03, 2.36, 11.30, 4.88, 1.87 ,204.02550, 59.20790,0.0714,0.730,  NOR,   4.10,805, 58,48,2,25.0
A1773,52,90, 12.51, 49, 15.08,45, 0.61, 0.95, 4.33,  5.96, 1.98, 1.90,  3.30, 3.18, 1.67 ,205.52290, 02.22750,0.0782,0.228,  NOR,   0.00,615, 73,54,2,14.6 
RXCJ1351.7+4622,18,31, 25.54, 29, 13.96,35, 0.34, 0.55, 3.40,  3.23, 0.38, 0.07,  1.60, 0.30, 4.18 ,207.93980, 46.36680,0.0630,0.149,  NOR,   0.00,361, 74,46,2, 7.9
A1809,63,121, 16.62, 67, 11.66, 56,0.56, 0.83, 4.42,  2.63, 1.32, 0.77,  3.51, 3.08, 2.66,208.27500, 05.15800,0.0790,0.435,  BCS,   0.00,551, 60,46,2, 2.4
A1885,29,74, 9.011, 21, 50.58, 20,0.90, 1.25, 4.79,  1.01, 4.50, 1.24,  4.46, 1.23, 0.99,213.43130, 43.66340,0.0882,0.473,  NOR,   2.31,687,128,82,1,16.9 
MKW8,19,8, 2.823, 17, 3.39, 19,0.37, 0.57, 2.73,  2.83, 0.44, 0.38,  0.83, 0.92, 1.87,220.15920, 03.47650,0.0271,0.096,  NOR,   3.03,325, 31,25,2, 2.2
A2064,30,47, 11.97, 22, 21.44,29, 0.60, 0.89, 4.72,  9.19, 1.65, 0.63,  4.27, 1.48, 2.59 ,230.22710, 48.66930,0.0738,0.385,  NOR,   4.52,599, 93,64,2,17.9 
A2061,95,80, 5.412, 85, 7.38,69, 0.90, 1.31, 5.92,  9.29, 5.27, 0.50,  8.46, 1.17, 1.61,230.32100, 30.64000,0.0783,1.085,  BCS,   0.00,720, 67,52,2, 4.3 
A2067,24,128, 37.06, 28, 24.3,31, 0.40, 0.56, 2.22,  1.21, 0.41, 0.24,  0.44, 0.27, 1.09,230.78300, 30.84500,0.0737,0.220,  eBCS,  1.54,500,239,98,2, 5.7 
A2110,39,176, 21.44, 32, 34.32, 33,0.59, 0.91, 4.35,  3.84, 1.74, 0.35,  3.36, 0.61, 1.93,234.95300, 30.71730,0.0971,1.028,  NOR,   0.00,581,115,72,2, 4.9 
A2124,70,29, 2.492, 48, 6.036,47,0.96, 1.38, 6.77,  9.70, 6.06, 1.04, 12.60, 2.56, 2.08,236.25000, 36.06600,0.0677,0.387,  BCS,   4.41,841, 74,59,2, 4.4 
A2142,141,115, 10.83, 186, 6.141,113, 0.70, 1.13, 5.55,  3.13, 3.38, 1.37,  6.94, 3.66, 2.05,239.58570, 27.22690,0.0903,5.720,  NOR,   8.24,764, 56,46,2, 1.2 
NGC6107,28,10, 2.195, 22, 4.034,22,0.51, 0.77, 2.98,  0.81, 1.05, 0.50,  1.08, 0.56, 1.03,244.36350, 34.93670,0.0311,0.083,  NOR,   2.87,464, 47,36,1, 0.1 
A2175,49,77,35.08, 71, 14.64, 66,0.38, 0.70, 4.53,  2.42, 0.79, 0.27,  3.79, 2.16, 4.81,245.13220, 29.89530,0.0961,0.820,  NOR,   0.00,385, 69,45,2, 7.1 
A2197,35,3,1.814, 63, 0.802,59, 0.38, 0.68, 3.36,  1.72, 0.73, 0.41,  1.54, 1.04, 2.11,246.91730, 40.91970,0.0300,0.033,  NOR,   1.96,535, 40,33,1, 8.6 
A2199,77,0,0.323, 88, 0.23,75,0.69, 1.01, 5.54, 10.00, 2.39, 0.77,  6.91, 1.98, 2.89 ,247.15820, 39.54870,0.0310,1.043,  NOR,   4.14,676, 37,32,2, 7.8 
A2245,94,80,6.411, 88, 8.376,73,0.95, 1.32, 6.51,  9.29, 5.33, 0.57, 11.20, 1.79, 2.10 ,255.63300, 33.51300,0.0868,0.266,  eBCS,  0.00,952, 89,70,1, 7.8 
A2244,99,112,11.9,  99, 11.75,82,0.85, 1.23, 4.97,  3.03, 4.31, 1.93,  4.98, 2.33, 1.16 ,255.67860, 34.06190,0.0997,2.232,  NOR,   5.57,981, 95,74,2, 7.6 
A2255,167,60,3.933, 173, 3.514,121,0.94, 1.48, 6.71,  8.99, 7.51, 1.38, 12.30, 2.54, 1.64,258.19680, 64.06140,0.0801,1.529,  NOR,   6.42,961, 58,49,2, 6.9 
NGC6338,26,2,0.373, 16, 1.068,19,0.57, 0.87, 4.54,  5.15, 1.52, 1.06,  3.81, 3.18, 2.51,258.84140, 57.40740,0.0286,0.135,  NOR ,  2.64,492, 45,35,2, 1.4 
A2399,47,48,10.8,  56, 7.135,51,0.50, 0.76, 3.65,  5.35, 1.01, 0.27,  1.98, 0.67, 1.96,329.35750, -7.79470,0.0582,0.241 , REF ,  0.00,532, 53,41,2 ,2.8 
A2428,37,154,18.16, 33, 25.2,33,0.46, 0.85, 4.26,  9.09, 1.44, 0.54,  3.14, 1.32, 2.18 ,334.06460, -9.34000,0.0836,0.801,  REF,   0.00,487, 79,53,2, 2.3 
A2670,95,41,9.163, 109, 4.44,93,0.58, 0.93, 4.40,  6.57, 1.88, 1.02,  3.46, 2.35, 1.84 ,358.55580,-10.41280,0.0761,0.721,  REF,   3.98,687, 63,50,2, 3.1 
